[gd_scene load_steps=3 format=2]

[ext_resource path="res://Assets/World/Underground/arrow.png" type="Texture" id=1]
[ext_resource path="res://Scripts/World/Arrow.gd" type="Script" id=2]


[node name="Node2D" type="Node2D"]
script = ExtResource( 2 )

[node name="Sprite" type="Sprite" parent="."]
texture = ExtResource( 1 )
region_rect = Rect2( 0, 0, 480, 480 )
