[gd_scene load_steps=26 format=2]

[ext_resource path="res://Scenes/Overworld/Town.tscn" type="PackedScene" id=1]
[ext_resource path="res://Assets/World/Overworld/Grassland/MainLevBuild.png" type="Texture" id=2]
[ext_resource path="res://Fonts/Dynamic_Fonts/Bars_dynamicfont.tres" type="DynamicFont" id=3]
[ext_resource path="res://Assets/GUI/Ressources/Gold.png" type="Texture" id=4]
[ext_resource path="res://Assets/GUI/Ressources/Bread.png" type="Texture" id=5]
[ext_resource path="res://Assets/GUI/Ressources/Iron.png" type="Texture" id=6]
[ext_resource path="res://Assets/GUI/Ressources/Stone.png" type="Texture" id=7]
[ext_resource path="res://Assets/GUI/Ressources/persons.png" type="Texture" id=8]
[ext_resource path="res://Scripts/World/RealOverworld.gd" type="Script" id=9]
[ext_resource path="res://Fonts/Dynamic_Fonts/dynamicFontMenu.tres" type="DynamicFont" id=10]
[ext_resource path="res://Assets/GUI/Button_Icon/icon.png" type="Texture" id=11]
[ext_resource path="res://Scenes/Players/PlayerOverworld.tscn" type="PackedScene" id=12]
[ext_resource path="res://Scripts/World/town_pfad_überweisen.gd" type="Script" id=13]
[ext_resource path="res://Scripts/Player/Camera2D.gd" type="Script" id=14]

[sub_resource type="TileSet" id=1]
0/name = "MainLevBuild.png 0"
0/texture = ExtResource( 2 )
0/tex_offset = Vector2( 0, 0 )
0/modulate = Color( 1, 1, 1, 1 )
0/region = Rect2( 480, 1216, 160, 160 )
0/tile_mode = 0
0/occluder_offset = Vector2( 0, 0 )
0/navigation_offset = Vector2( 0, 0 )
0/shape_offset = Vector2( 0, 0 )
0/shape_transform = Transform2D( 1, 0, 0, 1, 0, 0 )
0/shape_one_way = false
0/shape_one_way_margin = 0.0
0/shapes = [  ]
0/z_index = 0

[sub_resource type="TileSet" id=2]
0/name = "MainLevBuild.png 0"
0/texture = ExtResource( 2 )
0/tex_offset = Vector2( 0, 0 )
0/modulate = Color( 1, 1, 1, 1 )
0/region = Rect2( 640, 1824, 96, 96 )
0/tile_mode = 0
0/occluder_offset = Vector2( 0, 0 )
0/navigation_offset = Vector2( 0, 0 )
0/shape_offset = Vector2( 0, 0 )
0/shape_transform = Transform2D( 1, 0, 0, 1, 0, 0 )
0/shape_one_way = false
0/shape_one_way_margin = 0.0
0/shapes = [  ]
0/z_index = 0

[sub_resource type="Curve2D" id=3]
_data = {
"points": PoolVector2Array( 0, 0, 0, 0, -1534.49, 1134.91, 0, 0, 0, 0, -1526.55, 1177.77, 0, 0, 0, 0, -1520.2, 1201.58, 0, 0, 0, 0, -1507.5, 1215.87, 0, 0, 0, 0, -1493.21, 1236.51, 0, 0, 0, 0, -1490.04, 1273.02, 0, 0, 0, 0, -1490.04, 1304.76, 0, 0, 0, 0, -1490.04, 1358.74, 0, 0, 0, 0, -1483.69, 1388.9, 0, 0, 0, 0, -1470.99, 1407.95, 0, 0, 0, 0, -1463.05, 1434.93, 0, 0, 0, 0, -1458.29, 1455.57, 0, 0, 0, 0, -1458.29, 1500.01, 0, 0, 0, 0, -1467.82, 1549.22, 0, 0, 0, 0, -1456.7, 1592.08, 0, 0, 0, 0, -1434.48, 1628.59, 0, 0, 0, 0, -1412.26, 1660.34, 0, 0, 0, 0, -1378.92, 1695.26, 0, 0, 0, 0, -1355.11, 1717.49, 0, 0, 0, 0, -1323.36, 1741.3, 0, 0, 0, 0, -1288.44, 1752.41, 0, 0, 0, 0, -1256.69, 1760.35, 0, 0, 0, 0, -1237.64, 1768.29, 0, 0, 0, 0, -1204.31, 1788.92, 0, 0, 0, 0, -1175.73, 1803.21, 0, 0, 0, 0, -1145.57, 1811.15, 0, 0, 0, 0, -1113.82, 1801.62, 0, 0, 0, 0, -1097.95, 1801.62, 0, 0, 0, 0, -1075.73, 1811.15, 0, 0, 0, 0, -1063.03, 1815.91, 0, 0, 0, 0, -1053.5, 1815.91 )
}

[sub_resource type="Curve2D" id=4]
_data = {
"points": PoolVector2Array( 0, 0, 0, 0, -1530.16, 1129.14, 0, 0, 0, 0, -1489.18, 1132.7, 0, 0, 0, 0, -1462.45, 1132.7, 0, 0, 0, 0, -1430.38, 1123.79, 0, 0, 0, 0, -1394.75, 1111.32, 0, 0, 0, 0, -1362.67, 1109.54, 0, 0, 0, 0, -1335.95, 1141.61, 0, 0, 0, 0, -1309.22, 1152.3, 0, 0, 0, 0, -1262.89, 1134.48, 0, 0, 0, 0, -1221.91, 1098.85, 0, 0, 0, 0, -1202.31, 1079.25, 0, 0, 0, 0, -1184.49, 1052.52, 0, 0, 0, 0, -1161.33, 1025.79, 0, 0, 0, 0, -1123.91, 999.066, 0, 0, 0, 0, -1075.8, 977.684, 0, 0, 0, 0, -1040.17, 979.466, 0, 0, 0, 0, -1011.66, 970.557, 0, 0, 0, 0, -993.842, 943.83, 0, 0, 0, 0, -970.678, 909.976, 0, 0, 0, 0, -951.079, 879.685, 0, 0, 0, 0, -913.661, 858.304, 0, 0, 0, 0, -881.589, 852.958 )
}

[sub_resource type="Curve2D" id=5]
_data = {
"points": PoolVector2Array( 0, 0, 0, 0, -893.878, 846.352, 0, 0, 0, 0, -913.478, 796.462, 0, 0, 0, 0, -924.169, 766.172, 0, 0, 0, 0, -924.169, 739.445, 0, 0, 0, 0, -909.915, 693.118, 0, 0, 0, 0, -892.097, 666.391, 0, 0, 0, 0, -867.151, 641.446, 0, 0, 0, 0, -854.679, 623.628, 0, 0, 0, 0, -849.333, 589.774, 0, 0, 0, 0, -849.333, 557.701, 0, 0, 0, 0, -868.933, 511.375, 0, 0, 0, 0, -879.624, 479.302, 0, 0, 0, 0, -884.969, 456.139, 0, 0, 0, 0, -884.969, 427.63, 0, 0, 0, 0, -884.969, 395.558, 0, 0, 0, 0, -884.969, 374.176, 0, 0, 0, 0, -884.969, 367.049 )
}

[sub_resource type="Curve2D" id=6]
_data = {
"points": PoolVector2Array( 0, 0, 0, 0, -895.815, 365.836, 0, 0, 0, 0, -848.622, 362.06, 0, 0, 0, 0, -808.979, 358.285, 0, 0, 0, 0, -778.775, 358.285, 0, 0, 0, 0, -716.479, 360.173, 0, 0, 0, 0, -665.51, 350.734, 0, 0, 0, 0, -639.082, 337.52, 0, 0, 0, 0, -590, 320.53, 0, 0, 0, 0, -542.806, 309.203, 0, 0, 0, 0, -506.939, 309.203, 0, 0, 0, 0, -463.521, 320.53, 0, 0, 0, 0, -438.98, 335.632, 0, 0, 0, 0, -414.439, 360.173, 0, 0, 0, 0, -391.786, 382.826, 0, 0, 0, 0, -363.47, 403.591, 0, 0, 0, 0, -318.164, 418.693, 0, 0, 0, 0, -257.756, 420.581, 0, 0, 0, 0, -214.338, 418.693, 0, 0, 0, 0, -163.369, 401.703, 0, 0, 0, 0, -112.4, 388.489, 0, 0, 0, 0, -53.8794, 373.387, 0, 0, 0, 0, 8.41626, 369.611, 0, 0, 0, 0, 61.2732, 373.387, 0, 0, 0, 0, 112.242, 384.713 )
}

[sub_resource type="Curve2D" id=7]
_data = {
"points": PoolVector2Array( 0, 0, 0, 0, 106.507, 382.649, 0, 0, 0, 0, 65.2344, 396.936, 0, 0, 0, 0, 20.7871, 412.81, 0, 0, 0, 0, -3.02393, 423.921, 0, 0, 0, 0, -28.4222, 436.621, 0, 0, 0, 0, -55.4081, 442.97, 0, 0, 0, 0, -85.5687, 435.033, 0, 0, 0, 0, -112.555, 430.271, 0, 0, 0, 0, -152.24, 430.271, 0, 0, 0, 0, -185.575, 438.208, 0, 0, 0, 0, -230.022, 454.082, 0, 0, 0, 0, -263.358, 469.956, 0, 0, 0, 0, -296.693, 485.83, 0, 0, 0, 0, -334.791, 508.054, 0, 0, 0, 0, -368.126, 550.913, 0, 0, 0, 0, -390.35, 574.724, 0, 0, 0, 0, -418.923, 593.773, 0, 0, 0, 0, -455.433, 608.06, 0, 0, 0, 0, -496.706, 617.584, 0, 0, 0, 0, -536.391, 623.934, 0, 0, 0, 0, -561.789, 627.109, 0, 0, 0, 0, -587.187, 630.284, 0, 0, 0, 0, -622.11, 638.221, 0, 0, 0, 0, -647.509, 641.395, 0, 0, 0, 0, -691.956, 650.92, 0, 0, 0, 0, -731.641, 669.969, 0, 0, 0, 0, -766.564, 696.954, 0, 0, 0, 0, -798.312, 738.227, 0, 0, 0, 0, -820.535, 774.737, 0, 0, 0, 0, -839.584, 801.723, 0, 0, 0, 0, -861.808, 833.471, 0, 0, 0, 0, -876.094, 847.757, 0, 0, 0, 0, -890.381, 858.869 )
}

[sub_resource type="Curve2D" id=8]
_data = {
"points": PoolVector2Array( 0, 0, 0, 0, -892.568, 849.215, 0, 0, 0, 0, -871.187, 893.76, 0, 0, 0, 0, -858.714, 924.05, 0, 0, 0, 0, -840.896, 966.813, 0, 0, 0, 0, -808.824, 982.85, 0, 0, 0, 0, -774.97, 1006.01, 0, 0, 0, 0, -757.152, 1043.43, 0, 0, 0, 0, -753.588, 1084.41, 0, 0, 0, 0, -760.715, 1121.83, 0, 0, 0, 0, -753.588, 1155.68, 0, 0, 0, 0, -719.734, 1194.88, 0, 0, 0, 0, -684.098, 1210.92, 0, 0, 0, 0, -637.771, 1214.48, 0, 0, 0, 0, -611.044, 1216.27, 0, 0, 0, 0, -573.626, 1248.34, 0, 0, 0, 0, -555.808, 1289.32, 0, 0, 0, 0, -514.827, 1316.05, 0, 0, 0, 0, -464.937, 1317.83, 0, 0, 0, 0, -420.392, 1300.01, 0, 0, 0, 0, -382.974, 1294.66, 0, 0, 0, 0, -354.465, 1296.45, 0, 0, 0, 0, -331.302, 1307.14, 0, 0, 0, 0, -325.957, 1307.14 )
}

[sub_resource type="Curve2D" id=9]
_data = {
"points": PoolVector2Array( 0, 0, 0, 0, -333.239, 1307.39, 0, 0, 0, 0, -344.566, 1341.37, 0, 0, 0, 0, -367.219, 1379.12, 0, 0, 0, 0, -397.423, 1411.21, 0, 0, 0, 0, -438.953, 1443.3, 0, 0, 0, 0, -461.606, 1465.96, 0, 0, 0, 0, -486.147, 1520.7, 0, 0, 0, 0, -522.014, 1594.32, 0, 0, 0, 0, -539.004, 1660.39, 0, 0, 0, 0, -540.891, 1700.04, 0, 0, 0, 0, -544.667, 1739.68, 0, 0, 0, 0, -542.779, 1798.2, 0, 0, 0, 0, -542.779, 1852.95, 0, 0, 0, 0, -554.106, 1905.8, 0, 0, 0, 0, -580.534, 1964.32, 0, 0, 0, 0, -606.963, 2007.74, 0, 0, 0, 0, -620.177, 2030.39, 0, 0, 0, 0, -625.84, 2047.38 )
}

[sub_resource type="Curve2D" id=10]
_data = {
"points": PoolVector2Array( 0, 0, 0, 0, -628.444, 2042.29, 0, 0, 0, 0, -673.853, 2033.88, 0, 0, 0, 0, -722.625, 2010.34, 0, 0, 0, 0, -749.533, 1993.52, 0, 0, 0, 0, -773.078, 1963.25, 0, 0, 0, 0, -803.351, 1911.11, 0, 0, 0, 0, -868.941, 1870.75, 0, 0, 0, 0, -877.35, 1865.7, 0, 0, 0, 0, -909.304, 1867.38, 0, 0, 0, 0, -974.894, 1877.47, 0, 0, 0, 0, -1016.94, 1860.66, 0, 0, 0, 0, -1032.07, 1848.88, 0, 0, 0, 0, -1043.85, 1832.07, 0, 0, 0, 0, -1047.21, 1827.02, 0, 0, 0, 0, -1057.3, 1820.29 )
}

[sub_resource type="Curve2D" id=11]
_data = {
"points": PoolVector2Array( 0, 0, 0, 0, -1533.21, 1122.79, 0, 0, 0, 0, -1530.69, 1084.99, 0, 0, 0, 0, -1521.87, 1059.79, 0, 0, 0, 0, -1504.23, 1038.37, 0, 0, 0, 0, -1491.63, 1016.95, 0, 0, 0, 0, -1486.59, 993.015, 0, 0, 0, 0, -1485.33, 964.037, 0, 0, 0, 0, -1485.33, 932.539, 0, 0, 0, 0, -1486.59, 908.601, 0, 0, 0, 0, -1487.85, 887.182, 0, 0, 0, 0, -1487.85, 870.803 )
}

[node name="RealOverworld" type="Node2D"]
script = ExtResource( 9 )

[node name="Grass" type="TileMap" parent="."]
tile_set = SubResource( 1 )
cell_size = Vector2( 160, 160 )
format = 1
tile_data = PoolIntArray( -851975, 0, 0, -851974, 0, 0, -851973, 0, 0, -851972, 0, 0, -851971, 0, 0, -851970, 0, 0, -786441, 0, 0, -786440, 0, 0, -786439, 0, 0, -786438, 0, 0, -786437, 0, 0, -786436, 0, 0, -786435, 0, 0, -786434, 0, 0, -786433, 0, 0, -851968, 0, 0, -851967, 0, 0, -851966, 0, 0, -720907, 0, 0, -720906, 0, 0, -720905, 0, 0, -720904, 0, 0, -720903, 0, 0, -720902, 0, 0, -720901, 0, 0, -720900, 0, 0, -720899, 0, 0, -720898, 0, 0, -720897, 0, 0, -786432, 0, 0, -786431, 0, 0, -786430, 0, 0, -786429, 0, 0, -786428, 0, 0, -655372, 0, 0, -655371, 0, 0, -655370, 0, 0, -655369, 0, 0, -655368, 0, 0, -655367, 0, 0, -655366, 0, 0, -655365, 0, 0, -655364, 0, 0, -655363, 0, 0, -655362, 0, 0, -655361, 0, 0, -720896, 0, 0, -720895, 0, 0, -720894, 0, 0, -720893, 0, 0, -720892, 0, 0, -720891, 0, 0, -720890, 0, 0, -720889, 0, 0, -589838, 0, 0, -589837, 0, 0, -589836, 0, 0, -589835, 0, 0, -589834, 0, 0, -589833, 0, 0, -589832, 0, 0, -589831, 0, 0, -589830, 0, 0, -589829, 0, 0, -589828, 0, 0, -589827, 0, 0, -589826, 0, 0, -589825, 0, 0, -655360, 0, 0, -655359, 0, 0, -655358, 0, 0, -655357, 0, 0, -655356, 0, 0, -655355, 0, 0, -655354, 0, 0, -655353, 0, 0, -655352, 0, 0, -655351, 0, 0, -524304, 0, 0, -524303, 0, 0, -524302, 0, 0, -524301, 0, 0, -524300, 0, 0, -524299, 0, 0, -524298, 0, 0, -524297, 0, 0, -524296, 0, 0, -524295, 0, 0, -524294, 0, 0, -524293, 0, 0, -524292, 0, 0, -524291, 0, 0, -524290, 0, 0, -524289, 0, 0, -589824, 0, 0, -589823, 0, 0, -589822, 0, 0, -589821, 0, 0, -589820, 0, 0, -589819, 0, 0, -589818, 0, 0, -589817, 0, 0, -589816, 0, 0, -589815, 0, 0, -458768, 0, 0, -458767, 0, 0, -458766, 0, 0, -458765, 0, 0, -458764, 0, 0, -458763, 0, 0, -458762, 0, 0, -458761, 0, 0, -458760, 0, 0, -458759, 0, 0, -458758, 0, 0, -458757, 0, 0, -458756, 0, 0, -458755, 0, 0, -458754, 0, 0, -458753, 0, 0, -524288, 0, 0, -524287, 0, 0, -524286, 0, 0, -524285, 0, 0, -524284, 0, 0, -524283, 0, 0, -524282, 0, 0, -524281, 0, 0, -524280, 0, 0, -524279, 0, 0, -524278, 0, 0, -524277, 0, 0, -393233, 0, 0, -393232, 0, 0, -393231, 0, 0, -393230, 0, 0, -393229, 0, 0, -393228, 0, 0, -393227, 0, 0, -393226, 0, 0, -393225, 0, 0, -393224, 0, 0, -393223, 0, 0, -393222, 0, 0, -393221, 0, 0, -393220, 0, 0, -393219, 0, 0, -393218, 0, 0, -393217, 0, 0, -458752, 0, 0, -458751, 0, 0, -458750, 0, 0, -458749, 0, 0, -458748, 0, 0, -458747, 0, 0, -458746, 0, 0, -458745, 0, 0, -458744, 0, 0, -458743, 0, 0, -458742, 0, 0, -458741, 0, 0, -458740, 0, 0, -327698, 0, 0, -327697, 0, 0, -327696, 0, 0, -327695, 0, 0, -327694, 0, 0, -327693, 0, 0, -327692, 0, 0, -327691, 0, 0, -327690, 0, 0, -327689, 0, 0, -327688, 0, 0, -327687, 0, 0, -327686, 0, 0, -327685, 0, 0, -327684, 0, 0, -327683, 0, 0, -327682, 0, 0, -327681, 0, 0, -393216, 0, 0, -393215, 0, 0, -393214, 0, 0, -393213, 0, 0, -393212, 0, 0, -393211, 0, 0, -393210, 0, 0, -393209, 0, 0, -393208, 0, 0, -393207, 0, 0, -393206, 0, 0, -393205, 0, 0, -393204, 0, 0, -393203, 0, 0, -393202, 0, 0, -262162, 0, 0, -262161, 0, 0, -262160, 0, 0, -262159, 0, 0, -262158, 0, 0, -262157, 0, 0, -262156, 0, 0, -262155, 0, 0, -262154, 0, 0, -262153, 0, 0, -262152, 0, 0, -262151, 0, 0, -262150, 0, 0, -262149, 0, 0, -262148, 0, 0, -262147, 0, 0, -262146, 0, 0, -262145, 0, 0, -327680, 0, 0, -327679, 0, 0, -327678, 0, 0, -327677, 0, 0, -327676, 0, 0, -327675, 0, 0, -327674, 0, 0, -327673, 0, 0, -327672, 0, 0, -327671, 0, 0, -327670, 0, 0, -327669, 0, 0, -327668, 0, 0, -327667, 0, 0, -327666, 0, 0, -196627, 0, 0, -196626, 0, 0, -196625, 0, 0, -196624, 0, 0, -196623, 0, 0, -196622, 0, 0, -196621, 0, 0, -196620, 0, 0, -196619, 0, 0, -196618, 0, 0, -196617, 0, 0, -196616, 0, 0, -196615, 0, 0, -196614, 0, 0, -196613, 0, 0, -196612, 0, 0, -196611, 0, 0, -196610, 0, 0, -196609, 0, 0, -262144, 0, 0, -262143, 0, 0, -262142, 0, 0, -262141, 0, 0, -262140, 0, 0, -262139, 0, 0, -262138, 0, 0, -262137, 0, 0, -262136, 0, 0, -262135, 0, 0, -262134, 0, 0, -262133, 0, 0, -262132, 0, 0, -262131, 0, 0, -262130, 0, 0, -262129, 0, 0, -131091, 0, 0, -131090, 0, 0, -131089, 0, 0, -131088, 0, 0, -131087, 0, 0, -131086, 0, 0, -131085, 0, 0, -131084, 0, 0, -131083, 0, 0, -131082, 0, 0, -131081, 0, 0, -131080, 0, 0, -131079, 0, 0, -131078, 0, 0, -131077, 0, 0, -131076, 0, 0, -131075, 0, 0, -131074, 0, 0, -131073, 0, 0, -196608, 0, 0, -196607, 0, 0, -196606, 0, 0, -196605, 0, 0, -196604, 0, 0, -196603, 0, 0, -196602, 0, 0, -196601, 0, 0, -196600, 0, 0, -196599, 0, 0, -196598, 0, 0, -196597, 0, 0, -196596, 0, 0, -196595, 0, 0, -196594, 0, 0, -196593, 0, 0, -196592, 0, 0, -65555, 0, 0, -65554, 0, 0, -65553, 0, 0, -65552, 0, 0, -65551, 0, 0, -65550, 0, 0, -65549, 0, 0, -65548, 0, 0, -65547, 0, 0, -65546, 0, 0, -65545, 0, 0, -65544, 0, 0, -65543, 0, 0, -65542, 0, 0, -65541, 0, 0, -65540, 0, 0, -65539, 0, 0, -65538, 0, 0, -65537, 0, 0, -131072, 0, 0, -131071, 0, 0, -131070, 0, 0, -131069, 0, 0, -131068, 0, 0, -131067, 0, 0, -131066, 0, 0, -131065, 0, 0, -131064, 0, 0, -131063, 0, 0, -131062, 0, 0, -131061, 0, 0, -131060, 0, 0, -131059, 0, 0, -131058, 0, 0, -131057, 0, 0, -131056, 0, 0, -131055, 0, 0, -19, 0, 0, -18, 0, 0, -17, 0, 0, -16, 0, 0, -15, 0, 0, -14, 0, 0, -13, 0, 0, -12, 0, 0, -11, 0, 0, -10, 0, 0, -9, 0, 0, -8, 0, 0, -7, 0, 0, -6, 0, 0, -5, 0, 0, -4, 0, 0, -3, 0, 0, -2, 0, 0, -1, 0, 0, -65536, 0, 0, -65535, 0, 0, -65534, 0, 0, -65533, 0, 0, -65532, 0, 0, -65531, 0, 0, -65530, 0, 0, -65529, 0, 0, -65528, 0, 0, -65527, 0, 0, -65526, 0, 0, -65525, 0, 0, -65524, 0, 0, -65523, 0, 0, -65522, 0, 0, -65521, 0, 0, -65520, 0, 0, -65519, 0, 0, 65517, 0, 0, 65518, 0, 0, 65519, 0, 0, 65520, 0, 0, 65521, 0, 0, 65522, 0, 0, 65523, 0, 0, 65524, 0, 0, 65525, 0, 0, 65526, 0, 0, 65527, 0, 0, 65528, 0, 0, 65529, 0, 0, 65530, 0, 0, 65531, 0, 0, 65532, 0, 0, 65533, 0, 0, 65534, 0, 0, 65535, 0, 0, 0, 0, 0, 1, 0, 0, 2, 0, 0, 3, 0, 0, 4, 0, 0, 5, 0, 0, 6, 0, 0, 7, 0, 0, 8, 0, 0, 9, 0, 0, 10, 0, 0, 11, 0, 0, 12, 0, 0, 13, 0, 0, 14, 0, 0, 15, 0, 0, 16, 0, 0, 17, 0, 0, 18, 0, 0, 131053, 0, 0, 131054, 0, 0, 131055, 0, 0, 131056, 0, 0, 131057, 0, 0, 131058, 0, 0, 131059, 0, 0, 131060, 0, 0, 131061, 0, 0, 131062, 0, 0, 131063, 0, 0, 131064, 0, 0, 131065, 0, 0, 131066, 0, 0, 131067, 0, 0, 131068, 0, 0, 131069, 0, 0, 131070, 0, 0, 131071, 0, 0, 65536, 0, 0, 65537, 0, 0, 65538, 0, 0, 65539, 0, 0, 65540, 0, 0, 65541, 0, 0, 65542, 0, 0, 65543, 0, 0, 65544, 0, 0, 65545, 0, 0, 65546, 0, 0, 65547, 0, 0, 65548, 0, 0, 65549, 0, 0, 65550, 0, 0, 65551, 0, 0, 65552, 0, 0, 65553, 0, 0, 65554, 0, 0, 196589, 0, 0, 196590, 0, 0, 196591, 0, 0, 196592, 0, 0, 196593, 0, 0, 196594, 0, 0, 196595, 0, 0, 196596, 0, 0, 196597, 0, 0, 196598, 0, 0, 196599, 0, 0, 196600, 0, 0, 196601, 0, 0, 196602, 0, 0, 196603, 0, 0, 196604, 0, 0, 196605, 0, 0, 196606, 0, 0, 196607, 0, 0, 131072, 0, 0, 131073, 0, 0, 131074, 0, 0, 131075, 0, 0, 131076, 0, 0, 131077, 0, 0, 131078, 0, 0, 131079, 0, 0, 131080, 0, 0, 131081, 0, 0, 131082, 0, 0, 131083, 0, 0, 131084, 0, 0, 131085, 0, 0, 131086, 0, 0, 131087, 0, 0, 131088, 0, 0, 131089, 0, 0, 131090, 0, 0, 131091, 0, 0, 262125, 0, 0, 262126, 0, 0, 262127, 0, 0, 262128, 0, 0, 262129, 0, 0, 262130, 0, 0, 262131, 0, 0, 262132, 0, 0, 262133, 0, 0, 262134, 0, 0, 262135, 0, 0, 262136, 0, 0, 262137, 0, 0, 262138, 0, 0, 262139, 0, 0, 262140, 0, 0, 262141, 0, 0, 262142, 0, 0, 262143, 0, 0, 196608, 0, 0, 196609, 0, 0, 196610, 0, 0, 196611, 0, 0, 196612, 0, 0, 196613, 0, 0, 196614, 0, 0, 196615, 0, 0, 196616, 0, 0, 196617, 0, 0, 196618, 0, 0, 196619, 0, 0, 196620, 0, 0, 196621, 0, 0, 196622, 0, 0, 196623, 0, 0, 196624, 0, 0, 196625, 0, 0, 196626, 0, 0, 196627, 0, 0, 327660, 0, 0, 327661, 0, 0, 327662, 0, 0, 327663, 0, 0, 327664, 0, 0, 327665, 0, 0, 327666, 0, 0, 327667, 0, 0, 327668, 0, 0, 327669, 0, 0, 327670, 0, 0, 327671, 0, 0, 327672, 0, 0, 327673, 0, 0, 327674, 0, 0, 327675, 0, 0, 327676, 0, 0, 327677, 0, 0, 327678, 0, 0, 327679, 0, 0, 262144, 0, 0, 262145, 0, 0, 262146, 0, 0, 262147, 0, 0, 262148, 0, 0, 262149, 0, 0, 262150, 0, 0, 262151, 0, 0, 262152, 0, 0, 262153, 0, 0, 262154, 0, 0, 262155, 0, 0, 262156, 0, 0, 262157, 0, 0, 262158, 0, 0, 262159, 0, 0, 262160, 0, 0, 262161, 0, 0, 262162, 0, 0, 262163, 0, 0, 393195, 0, 0, 393196, 0, 0, 393197, 0, 0, 393198, 0, 0, 393199, 0, 0, 393200, 0, 0, 393201, 0, 0, 393202, 0, 0, 393203, 0, 0, 393204, 0, 0, 393205, 0, 0, 393206, 0, 0, 393207, 0, 0, 393208, 0, 0, 393209, 0, 0, 393210, 0, 0, 393211, 0, 0, 393212, 0, 0, 393213, 0, 0, 393214, 0, 0, 393215, 0, 0, 327680, 0, 0, 327681, 0, 0, 327682, 0, 0, 327683, 0, 0, 327684, 0, 0, 327685, 0, 0, 327686, 0, 0, 327687, 0, 0, 327688, 0, 0, 327689, 0, 0, 327690, 0, 0, 327691, 0, 0, 327692, 0, 0, 327693, 0, 0, 327694, 0, 0, 327695, 0, 0, 327696, 0, 0, 327697, 0, 0, 327698, 0, 0, 327699, 0, 0, 458731, 0, 0, 458732, 0, 0, 458733, 0, 0, 458734, 0, 0, 458735, 0, 0, 458736, 0, 0, 458737, 0, 0, 458738, 0, 0, 458739, 0, 0, 458740, 0, 0, 458741, 0, 0, 458742, 0, 0, 458743, 0, 0, 458744, 0, 0, 458745, 0, 0, 458746, 0, 0, 458747, 0, 0, 458748, 0, 0, 458749, 0, 0, 458750, 0, 0, 458751, 0, 0, 393216, 0, 0, 393217, 0, 0, 393218, 0, 0, 393219, 0, 0, 393220, 0, 0, 393221, 0, 0, 393222, 0, 0, 393223, 0, 0, 393224, 0, 0, 393225, 0, 0, 393226, 0, 0, 393227, 0, 0, 393228, 0, 0, 393229, 0, 0, 393230, 0, 0, 393231, 0, 0, 393232, 0, 0, 393233, 0, 0, 393234, 0, 0, 393235, 0, 0, 524267, 0, 0, 524268, 0, 0, 524269, 0, 0, 524270, 0, 0, 524271, 0, 0, 524272, 0, 0, 524273, 0, 0, 524274, 0, 0, 524275, 0, 0, 524276, 0, 0, 524277, 0, 0, 524278, 0, 0, 524279, 0, 0, 524280, 0, 0, 524281, 0, 0, 524282, 0, 0, 524283, 0, 0, 524284, 0, 0, 524285, 0, 0, 524286, 0, 0, 524287, 0, 0, 458752, 0, 0, 458753, 0, 0, 458754, 0, 0, 458755, 0, 0, 458756, 0, 0, 458757, 0, 0, 458758, 0, 0, 458759, 0, 0, 458760, 0, 0, 458761, 0, 0, 458762, 0, 0, 458763, 0, 0, 458764, 0, 0, 458765, 0, 0, 458766, 0, 0, 458767, 0, 0, 458768, 0, 0, 458769, 0, 0, 458770, 0, 0, 458771, 0, 0, 589803, 0, 0, 589804, 0, 0, 589805, 0, 0, 589806, 0, 0, 589807, 0, 0, 589808, 0, 0, 589809, 0, 0, 589810, 0, 0, 589811, 0, 0, 589812, 0, 0, 589813, 0, 0, 589814, 0, 0, 589815, 0, 0, 589816, 0, 0, 589817, 0, 0, 589818, 0, 0, 589819, 0, 0, 589820, 0, 0, 589821, 0, 0, 589822, 0, 0, 589823, 0, 0, 524288, 0, 0, 524289, 0, 0, 524290, 0, 0, 524291, 0, 0, 524292, 0, 0, 524293, 0, 0, 524294, 0, 0, 524295, 0, 0, 524296, 0, 0, 524297, 0, 0, 524298, 0, 0, 524299, 0, 0, 524300, 0, 0, 524301, 0, 0, 524302, 0, 0, 524303, 0, 0, 524304, 0, 0, 524305, 0, 0, 524306, 0, 0, 524307, 0, 0, 655338, 0, 0, 655339, 0, 0, 655340, 0, 0, 655341, 0, 0, 655342, 0, 0, 655343, 0, 0, 655344, 0, 0, 655345, 0, 0, 655346, 0, 0, 655347, 0, 0, 655348, 0, 0, 655349, 0, 0, 655350, 0, 0, 655351, 0, 0, 655352, 0, 0, 655353, 0, 0, 655354, 0, 0, 655355, 0, 0, 655356, 0, 0, 655357, 0, 0, 655358, 0, 0, 655359, 0, 0, 589824, 0, 0, 589825, 0, 0, 589826, 0, 0, 589827, 0, 0, 589828, 0, 0, 589829, 0, 0, 589830, 0, 0, 589831, 0, 0, 589832, 0, 0, 589833, 0, 0, 589834, 0, 0, 589835, 0, 0, 589836, 0, 0, 589837, 0, 0, 589838, 0, 0, 589839, 0, 0, 589840, 0, 0, 589841, 0, 0, 589842, 0, 0, 589843, 0, 0, 720874, 0, 0, 720875, 0, 0, 720876, 0, 0, 720877, 0, 0, 720878, 0, 0, 720879, 0, 0, 720880, 0, 0, 720881, 0, 0, 720882, 0, 0, 720883, 0, 0, 720884, 0, 0, 720885, 0, 0, 720886, 0, 0, 720887, 0, 0, 720888, 0, 0, 720889, 0, 0, 720890, 0, 0, 720891, 0, 0, 720892, 0, 0, 720893, 0, 0, 720894, 0, 0, 720895, 0, 0, 655360, 0, 0, 655361, 0, 0, 655362, 0, 0, 655363, 0, 0, 655364, 0, 0, 655365, 0, 0, 655366, 0, 0, 655367, 0, 0, 655368, 0, 0, 655369, 0, 0, 655370, 0, 0, 655371, 0, 0, 655372, 0, 0, 655373, 0, 0, 655374, 0, 0, 655375, 0, 0, 655376, 0, 0, 655377, 0, 0, 655378, 0, 0, 655379, 0, 0, 786410, 0, 0, 786411, 0, 0, 786412, 0, 0, 786413, 0, 0, 786414, 0, 0, 786415, 0, 0, 786416, 0, 0, 786417, 0, 0, 786418, 0, 0, 786419, 0, 0, 786420, 0, 0, 786421, 0, 0, 786422, 0, 0, 786423, 0, 0, 786424, 0, 0, 786425, 0, 0, 786426, 0, 0, 786427, 0, 0, 786428, 0, 0, 786429, 0, 0, 786430, 0, 0, 786431, 0, 0, 720896, 0, 0, 720897, 0, 0, 720898, 0, 0, 720899, 0, 0, 720900, 0, 0, 720901, 0, 0, 720902, 0, 0, 720903, 0, 0, 720904, 0, 0, 720905, 0, 0, 720906, 0, 0, 720907, 0, 0, 720908, 0, 0, 720909, 0, 0, 720910, 0, 0, 720911, 0, 0, 720912, 0, 0, 720913, 0, 0, 720914, 0, 0, 720915, 0, 0, 851946, 0, 0, 851947, 0, 0, 851948, 0, 0, 851949, 0, 0, 851950, 0, 0, 851951, 0, 0, 851952, 0, 0, 851953, 0, 0, 851954, 0, 0, 851955, 0, 0, 851956, 0, 0, 851957, 0, 0, 851958, 0, 0, 851959, 0, 0, 851960, 0, 0, 851961, 0, 0, 851962, 0, 0, 851963, 0, 0, 851964, 0, 0, 851965, 0, 0, 851966, 0, 0, 851967, 0, 0, 786432, 0, 0, 786433, 0, 0, 786434, 0, 0, 786435, 0, 0, 786436, 0, 0, 786437, 0, 0, 786438, 0, 0, 786439, 0, 0, 786440, 0, 0, 786441, 0, 0, 786442, 0, 0, 786443, 0, 0, 786444, 0, 0, 786445, 0, 0, 786446, 0, 0, 786447, 0, 0, 786448, 0, 0, 786449, 0, 0, 786450, 0, 0, 917482, 0, 0, 917483, 0, 0, 917484, 0, 0, 917485, 0, 0, 917486, 0, 0, 917487, 0, 0, 917488, 0, 0, 917489, 0, 0, 917490, 0, 0, 917491, 0, 0, 917492, 0, 0, 917493, 0, 0, 917494, 0, 0, 917495, 0, 0, 917496, 0, 0, 917497, 0, 0, 917498, 0, 0, 917499, 0, 0, 917500, 0, 0, 917501, 0, 0, 917502, 0, 0, 917503, 0, 0, 851968, 0, 0, 851969, 0, 0, 851970, 0, 0, 851971, 0, 0, 851972, 0, 0, 851973, 0, 0, 851974, 0, 0, 851975, 0, 0, 851976, 0, 0, 851977, 0, 0, 851978, 0, 0, 851979, 0, 0, 851980, 0, 0, 851981, 0, 0, 851982, 0, 0, 851983, 0, 0, 851984, 0, 0, 851985, 0, 0, 851986, 0, 0, 983019, 0, 0, 983020, 0, 0, 983021, 0, 0, 983022, 0, 0, 983023, 0, 0, 983024, 0, 0, 983025, 0, 0, 983026, 0, 0, 983027, 0, 0, 983028, 0, 0, 983029, 0, 0, 983030, 0, 0, 983031, 0, 0, 983032, 0, 0, 983033, 0, 0, 983034, 0, 0, 983035, 0, 0, 983036, 0, 0, 983037, 0, 0, 983038, 0, 0, 983039, 0, 0, 917504, 0, 0, 917505, 0, 0, 917506, 0, 0, 917507, 0, 0, 917508, 0, 0, 917509, 0, 0, 917510, 0, 0, 917511, 0, 0, 917512, 0, 0, 917513, 0, 0, 917514, 0, 0, 917515, 0, 0, 917516, 0, 0, 917517, 0, 0, 917518, 0, 0, 917519, 0, 0, 917520, 0, 0, 917521, 0, 0, 1048555, 0, 0, 1048556, 0, 0, 1048557, 0, 0, 1048558, 0, 0, 1048559, 0, 0, 1048560, 0, 0, 1048561, 0, 0, 1048562, 0, 0, 1048563, 0, 0, 1048564, 0, 0, 1048565, 0, 0, 1048566, 0, 0, 1048567, 0, 0, 1048568, 0, 0, 1048569, 0, 0, 1048570, 0, 0, 1048571, 0, 0, 1048572, 0, 0, 1048573, 0, 0, 1048574, 0, 0, 1048575, 0, 0, 983040, 0, 0, 983041, 0, 0, 983042, 0, 0, 983043, 0, 0, 983044, 0, 0, 983045, 0, 0, 983046, 0, 0, 983047, 0, 0, 983048, 0, 0, 983049, 0, 0, 983050, 0, 0, 983051, 0, 0, 983052, 0, 0, 983053, 0, 0, 983054, 0, 0, 983055, 0, 0, 1114092, 0, 0, 1114093, 0, 0, 1114094, 0, 0, 1114095, 0, 0, 1114096, 0, 0, 1114097, 0, 0, 1114098, 0, 0, 1114099, 0, 0, 1114100, 0, 0, 1114101, 0, 0, 1114102, 0, 0, 1114103, 0, 0, 1114104, 0, 0, 1114105, 0, 0, 1114106, 0, 0, 1114107, 0, 0, 1114108, 0, 0, 1114109, 0, 0, 1114110, 0, 0, 1114111, 0, 0, 1048576, 0, 0, 1048577, 0, 0, 1048578, 0, 0, 1048579, 0, 0, 1048580, 0, 0, 1048581, 0, 0, 1048582, 0, 0, 1048583, 0, 0, 1048584, 0, 0, 1048585, 0, 0, 1048586, 0, 0, 1048587, 0, 0, 1048588, 0, 0, 1048589, 0, 0, 1048590, 0, 0, 1048591, 0, 0, 1179628, 0, 0, 1179629, 0, 0, 1179630, 0, 0, 1179631, 0, 0, 1179632, 0, 0, 1179633, 0, 0, 1179634, 0, 0, 1179635, 0, 0, 1179636, 0, 0, 1179637, 0, 0, 1179638, 0, 0, 1179639, 0, 0, 1179640, 0, 0, 1179641, 0, 0, 1179642, 0, 0, 1179643, 0, 0, 1179644, 0, 0, 1179645, 0, 0, 1179646, 0, 0, 1179647, 0, 0, 1114112, 0, 0, 1114113, 0, 0, 1114114, 0, 0, 1114115, 0, 0, 1114116, 0, 0, 1114117, 0, 0, 1114118, 0, 0, 1114119, 0, 0, 1114120, 0, 0, 1114121, 0, 0, 1114122, 0, 0, 1114123, 0, 0, 1114124, 0, 0, 1114125, 0, 0, 1114126, 0, 0, 1114127, 0, 0, 1245165, 0, 0, 1245166, 0, 0, 1245167, 0, 0, 1245168, 0, 0, 1245169, 0, 0, 1245170, 0, 0, 1245171, 0, 0, 1245172, 0, 0, 1245173, 0, 0, 1245174, 0, 0, 1245175, 0, 0, 1245176, 0, 0, 1245177, 0, 0, 1245178, 0, 0, 1245179, 0, 0, 1245180, 0, 0, 1245181, 0, 0, 1245182, 0, 0, 1245183, 0, 0, 1179648, 0, 0, 1179649, 0, 0, 1179650, 0, 0, 1179651, 0, 0, 1179652, 0, 0, 1179653, 0, 0, 1179654, 0, 0, 1179655, 0, 0, 1179656, 0, 0, 1179657, 0, 0, 1179658, 0, 0, 1179659, 0, 0, 1179660, 0, 0, 1179661, 0, 0, 1179662, 0, 0, 1179663, 0, 0, 1310703, 0, 0, 1310704, 0, 0, 1310705, 0, 0, 1310706, 0, 0, 1310707, 0, 0, 1310708, 0, 0, 1310709, 0, 0, 1310710, 0, 0, 1310711, 0, 0, 1310712, 0, 0, 1310713, 0, 0, 1310714, 0, 0, 1310715, 0, 0, 1310716, 0, 0, 1310717, 0, 0, 1310718, 0, 0, 1310719, 0, 0, 1245184, 0, 0, 1245185, 0, 0, 1245186, 0, 0, 1245187, 0, 0, 1245188, 0, 0, 1245189, 0, 0, 1245190, 0, 0, 1245191, 0, 0, 1245192, 0, 0, 1245193, 0, 0, 1245194, 0, 0, 1245195, 0, 0, 1245196, 0, 0, 1245197, 0, 0, 1245198, 0, 0, 1376240, 0, 0, 1376241, 0, 0, 1376242, 0, 0, 1376243, 0, 0, 1376244, 0, 0, 1376245, 0, 0, 1376246, 0, 0, 1376247, 0, 0, 1376248, 0, 0, 1376249, 0, 0, 1376250, 0, 0, 1376251, 0, 0, 1376252, 0, 0, 1376253, 0, 0, 1376254, 0, 0, 1376255, 0, 0, 1310720, 0, 0, 1310721, 0, 0, 1310722, 0, 0, 1310723, 0, 0, 1310724, 0, 0, 1310725, 0, 0, 1310726, 0, 0, 1310727, 0, 0, 1310728, 0, 0, 1310729, 0, 0, 1310730, 0, 0, 1310731, 0, 0, 1310732, 0, 0, 1310733, 0, 0, 1310734, 0, 0, 1441778, 0, 0, 1441779, 0, 0, 1441780, 0, 0, 1441781, 0, 0, 1441782, 0, 0, 1441783, 0, 0, 1441784, 0, 0, 1441785, 0, 0, 1441786, 0, 0, 1441787, 0, 0, 1441788, 0, 0, 1441789, 0, 0, 1441790, 0, 0, 1441791, 0, 0, 1376256, 0, 0, 1376257, 0, 0, 1376258, 0, 0, 1376259, 0, 0, 1376260, 0, 0, 1376261, 0, 0, 1376262, 0, 0, 1376263, 0, 0, 1376264, 0, 0, 1376265, 0, 0, 1376266, 0, 0, 1376267, 0, 0, 1376268, 0, 0, 1376269, 0, 0, 1507317, 0, 0, 1507318, 0, 0, 1507319, 0, 0, 1507320, 0, 0, 1507321, 0, 0, 1507322, 0, 0, 1507323, 0, 0, 1507324, 0, 0, 1507325, 0, 0, 1507326, 0, 0, 1507327, 0, 0, 1441792, 0, 0, 1441793, 0, 0, 1441794, 0, 0, 1441795, 0, 0, 1441796, 0, 0, 1441797, 0, 0, 1441798, 0, 0, 1441799, 0, 0, 1441800, 0, 0, 1441801, 0, 0, 1441802, 0, 0, 1441803, 0, 0, 1441804, 0, 0, 1572857, 0, 0, 1572858, 0, 0, 1572859, 0, 0, 1572860, 0, 0, 1572861, 0, 0, 1572862, 0, 0, 1572863, 0, 0, 1507328, 0, 0, 1507329, 0, 0, 1507330, 0, 0, 1507331, 0, 0, 1507332, 0, 0, 1507333, 0, 0, 1507334, 0, 0, 1507335, 0, 0, 1507336, 0, 0, 1507337, 0, 0, 1507338, 0, 0, 1507339, 0, 0, 1638398, 0, 0, 1638399, 0, 0, 1572864, 0, 0, 1572865, 0, 0, 1572866, 0, 0, 1572867, 0, 0, 1572868, 0, 0, 1572869, 0, 0, 1572870, 0, 0, 1572871, 0, 0, 1572872, 0, 0 )

[node name="ways" type="TileMap" parent="."]
tile_set = SubResource( 2 )
cell_size = Vector2( 96, 96 )
format = 1
tile_data = PoolIntArray( 196597, 0, 0, 196598, 0, 0, 196599, 0, 0, 131072, 0, 0, 131073, 0, 0, 131074, 0, 0, 131083, 0, 0, 131084, 0, 0, 262133, 0, 0, 262134, 0, 0, 262135, 0, 0, 262136, 0, 0, 262137, 0, 0, 262138, 0, 0, 262139, 0, 0, 262140, 0, 0, 262141, 0, 0, 262142, 0, 0, 262143, 0, 0, 196608, 0, 0, 196609, 0, 0, 196610, 0, 0, 196611, 0, 0, 196612, 0, 0, 196613, 0, 0, 196614, 0, 0, 196615, 0, 0, 196616, 0, 0, 196617, 0, 0, 196618, 0, 0, 196619, 0, 0, 196620, 0, 0, 327669, 0, 0, 327670, 0, 0, 327671, 0, 0, 327672, 0, 0, 327673, 0, 0, 327674, 0, 0, 327675, 0, 0, 327676, 0, 0, 327677, 0, 0, 327678, 0, 0, 327679, 0, 0, 262144, 0, 0, 262145, 0, 0, 262146, 0, 0, 262147, 0, 0, 262148, 0, 0, 262149, 0, 0, 262150, 0, 0, 262151, 0, 0, 262152, 0, 0, 262153, 0, 0, 262154, 0, 0, 262155, 0, 0, 262156, 0, 0, 393205, 0, 0, 393206, 0, 0, 393207, 0, 0, 393209, 0, 0, 393210, 0, 0, 393211, 0, 0, 393212, 0, 0, 393213, 0, 0, 393214, 0, 0, 393215, 0, 0, 327680, 0, 0, 327681, 0, 0, 327691, 0, 0, 327692, 0, 0, 458741, 0, 0, 458742, 0, 0, 458743, 0, 0, 458744, 0, 0, 458745, 0, 0, 458746, 0, 0, 458747, 0, 0, 458748, 0, 0, 458751, 0, 0, 393216, 0, 0, 393217, 0, 0, 393227, 0, 0, 393228, 0, 0, 524277, 0, 0, 524278, 0, 0, 524279, 0, 0, 524280, 0, 0, 524281, 0, 0, 524282, 0, 0, 524287, 0, 0, 458752, 0, 0, 458753, 0, 0, 458763, 0, 0, 458764, 0, 0, 589812, 0, 0, 589813, 0, 0, 589814, 0, 0, 589815, 0, 0, 589816, 0, 0, 524288, 0, 0, 524289, 0, 0, 524290, 0, 0, 524299, 0, 0, 524300, 0, 0, 655347, 0, 0, 655348, 0, 0, 655349, 0, 0, 655350, 0, 0, 655351, 0, 0, 655352, 0, 0, 589824, 0, 0, 589825, 0, 0, 589826, 0, 0, 589834, 0, 0, 589835, 0, 0, 589836, 0, 0, 589837, 0, 0, 589842, 0, 0, 720879, 0, 0, 720880, 0, 0, 720882, 0, 0, 720883, 0, 0, 720884, 0, 0, 720885, 0, 0, 720886, 0, 0, 720887, 0, 0, 720888, 0, 0, 720889, 0, 0, 655361, 0, 0, 655362, 0, 0, 655369, 0, 0, 655370, 0, 0, 655371, 0, 0, 655372, 0, 0, 655373, 0, 0, 655374, 0, 0, 655376, 0, 0, 655377, 0, 0, 655378, 0, 0, 786415, 0, 0, 786416, 0, 0, 786417, 0, 0, 786418, 0, 0, 786419, 0, 0, 786420, 0, 0, 786423, 0, 0, 786424, 0, 0, 786425, 0, 0, 786427, 0, 0, 786428, 0, 0, 786429, 0, 0, 720897, 0, 0, 720898, 0, 0, 720899, 0, 0, 720901, 0, 0, 720902, 0, 0, 720903, 0, 0, 720905, 0, 0, 720906, 0, 0, 720907, 0, 0, 720908, 0, 0, 720909, 0, 0, 720910, 0, 0, 720911, 0, 0, 720912, 0, 0, 720913, 0, 0, 720914, 0, 0, 851951, 0, 0, 851952, 0, 0, 851953, 0, 0, 851954, 0, 0, 851955, 0, 0, 851959, 0, 0, 851960, 0, 0, 851961, 0, 0, 851962, 0, 0, 851963, 0, 0, 851964, 0, 0, 851965, 0, 0, 786434, 0, 0, 786435, 0, 0, 786436, 0, 0, 786437, 0, 0, 786438, 0, 0, 786439, 0, 0, 786440, 0, 0, 786441, 0, 0, 786442, 0, 0, 786443, 0, 0, 786444, 0, 0, 786445, 0, 0, 786446, 0, 0, 786447, 0, 0, 786448, 0, 0, 786449, 0, 0, 786450, 0, 0, 917487, 0, 0, 917488, 0, 0, 917489, 0, 0, 917496, 0, 0, 917497, 0, 0, 917498, 0, 0, 917499, 0, 0, 917500, 0, 0, 917501, 0, 0, 917502, 0, 0, 917503, 0, 0, 851968, 0, 0, 851969, 0, 0, 851970, 0, 0, 851971, 0, 0, 851972, 0, 0, 851973, 0, 0, 851974, 0, 0, 851975, 0, 0, 851976, 0, 0, 851977, 0, 0, 851978, 0, 0, 851979, 0, 0, 851980, 0, 0, 851981, 0, 0, 851982, 0, 0, 851983, 0, 0, 851984, 0, 0, 851985, 0, 0, 851986, 0, 0, 983023, 0, 0, 983024, 0, 0, 983025, 0, 0, 983032, 0, 0, 983033, 0, 0, 983034, 0, 0, 983035, 0, 0, 983036, 0, 0, 983037, 0, 0, 983038, 0, 0, 983039, 0, 0, 917504, 0, 0, 917505, 0, 0, 917506, 0, 0, 917507, 0, 0, 917508, 0, 0, 917509, 0, 0, 917510, 0, 0, 917511, 0, 0, 917512, 0, 0, 917513, 0, 0, 917514, 0, 0, 917515, 0, 0, 917516, 0, 0, 917517, 0, 0, 917518, 0, 0, 917520, 0, 0, 917521, 0, 0, 1048559, 0, 0, 1048560, 0, 0, 1048561, 0, 0, 1048570, 0, 0, 1048571, 0, 0, 1048572, 0, 0, 983044, 0, 0, 983045, 0, 0, 983046, 0, 0, 983056, 0, 0, 983057, 0, 0, 1114095, 0, 0, 1114096, 0, 0, 1114097, 0, 0, 1114098, 0, 0, 1114105, 0, 0, 1114106, 0, 0, 1114107, 0, 0, 1048580, 0, 0, 1048581, 0, 0, 1048582, 0, 0, 1048591, 0, 0, 1048592, 0, 0, 1179632, 0, 0, 1179633, 0, 0, 1179634, 0, 0, 1179635, 0, 0, 1179636, 0, 0, 1179637, 0, 0, 1179641, 0, 0, 1179642, 0, 0, 1179643, 0, 0, 1114117, 0, 0, 1114118, 0, 0, 1114127, 0, 0, 1114128, 0, 0, 1245168, 0, 0, 1245169, 0, 0, 1245170, 0, 0, 1245171, 0, 0, 1245172, 0, 0, 1245173, 0, 0, 1245174, 0, 0, 1245177, 0, 0, 1245178, 0, 0, 1179653, 0, 0, 1179654, 0, 0, 1179662, 0, 0, 1179663, 0, 0, 1179664, 0, 0, 1310706, 0, 0, 1310707, 0, 0, 1310708, 0, 0, 1310709, 0, 0, 1310710, 0, 0, 1310711, 0, 0, 1310712, 0, 0, 1310713, 0, 0, 1310714, 0, 0, 1245189, 0, 0, 1245190, 0, 0, 1245191, 0, 0, 1245198, 0, 0, 1245199, 0, 0, 1245200, 0, 0, 1376244, 0, 0, 1376245, 0, 0, 1376246, 0, 0, 1376247, 0, 0, 1376248, 0, 0, 1376249, 0, 0, 1376250, 0, 0, 1310725, 0, 0, 1310726, 0, 0, 1310727, 0, 0, 1310730, 0, 0, 1310731, 0, 0, 1310733, 0, 0, 1310734, 0, 0, 1310735, 0, 0, 1441783, 0, 0, 1441784, 0, 0, 1441785, 0, 0, 1441786, 0, 0, 1441791, 0, 0, 1376256, 0, 0, 1376262, 0, 0, 1376263, 0, 0, 1376264, 0, 0, 1376265, 0, 0, 1376266, 0, 0, 1376267, 0, 0, 1376268, 0, 0, 1376269, 0, 0, 1376270, 0, 0, 1507320, 0, 0, 1507321, 0, 0, 1507322, 0, 0, 1507323, 0, 0, 1507324, 0, 0, 1507326, 0, 0, 1507327, 0, 0, 1441792, 0, 0, 1441793, 0, 0, 1441798, 0, 0, 1441799, 0, 0, 1441800, 0, 0, 1441801, 0, 0, 1441802, 0, 0, 1441803, 0, 0, 1441804, 0, 0, 1441805, 0, 0, 1572857, 0, 0, 1572858, 0, 0, 1572859, 0, 0, 1572860, 0, 0, 1572861, 0, 0, 1572862, 0, 0, 1572863, 0, 0, 1507328, 0, 0, 1507329, 0, 0, 1507330, 0, 0, 1507331, 0, 0, 1507332, 0, 0, 1507333, 0, 0, 1507334, 0, 0, 1507335, 0, 0, 1507336, 0, 0, 1507337, 0, 0, 1507338, 0, 0, 1507339, 0, 0, 1507340, 0, 0, 1638395, 0, 0, 1638396, 0, 0, 1638397, 0, 0, 1638398, 0, 0, 1638399, 0, 0, 1572864, 0, 0, 1572865, 0, 0, 1572866, 0, 0, 1572867, 0, 0, 1572868, 0, 0, 1572869, 0, 0, 1572870, 0, 0, 1572871, 0, 0, 1572872, 0, 0, 1572873, 0, 0, 1572874, 0, 0 )

[node name="ActualPaths" type="Node2D" parent="."]

[node name="Raidon_Quastead" type="Path2D" parent="ActualPaths"]
curve = SubResource( 3 )

[node name="Raidon_REEO" type="Path2D" parent="ActualPaths"]
visible = false
curve = SubResource( 4 )

[node name="REEO_Eshirwell" type="Path2D" parent="ActualPaths"]
visible = false
curve = SubResource( 5 )

[node name="Eshirwell_Ertonson" type="Path2D" parent="ActualPaths"]
visible = false
curve = SubResource( 6 )

[node name="Ertonson_REEO" type="Path2D" parent="ActualPaths"]
visible = false
curve = SubResource( 7 )

[node name="REEO_Ozrita" type="Path2D" parent="ActualPaths"]
visible = false
curve = SubResource( 8 )

[node name="Ozrita_QOT" type="Path2D" parent="ActualPaths"]
visible = false
curve = SubResource( 9 )

[node name="Quastead_QOT" type="Path2D" parent="ActualPaths"]
visible = false
curve = SubResource( 10 )

[node name="Raidon_Enter" type="Path2D" parent="ActualPaths"]
visible = false
curve = SubResource( 11 )

[node name="Raidon" type="Node2D" parent="."]
position = Vector2( -1474.33, 958.916 )
script = ExtResource( 13 )
n_path = NodePath("../ActualPaths/Raidon_Enter")
s_path = NodePath("../ActualPaths/Raidon_Quastead")
e_path = NodePath("../ActualPaths/Raidon_REEO")

[node name="Sprite" type="Sprite" parent="Raidon"]
position = Vector2( -54.9174, 176.397 )
scale = Vector2( 0.5, 0.5 )
texture = ExtResource( 11 )

[node name="REEO" type="Node2D" parent="."]
position = Vector2( -769.428, 687.281 )
script = ExtResource( 13 )
n_path = NodePath("../ActualPaths/REEO_Eshirwell")
s_path = NodePath("../ActualPaths/REEO_Ozrita")
w_path = NodePath("../ActualPaths/Raidon_REEO")
e_path = NodePath("../ActualPaths/Ertonson_REEO")

[node name="Sprite" type="Sprite" parent="REEO"]
position = Vector2( -118.981, 166.124 )
scale = Vector2( 0.5, 0.5 )
texture = ExtResource( 11 )

[node name="QOT" type="Node2D" parent="."]
position = Vector2( -629.303, 2045.6 )
script = ExtResource( 13 )
n_path = NodePath("../ActualPaths/Ozrita_QOT")
w_path = NodePath("../ActualPaths/Quastead_QOT")

[node name="Sprite" type="Sprite" parent="QOT"]
scale = Vector2( 0.5, 0.5 )
texture = ExtResource( 11 )

[node name="Eshirwell" type="Node2D" parent="."]
position = Vector2( -888.851, 368.555 )
script = ExtResource( 13 )
s_path = NodePath("../ActualPaths/REEO_Eshirwell")
e_path = NodePath("../ActualPaths/Eshirwell_Ertonson")

[node name="Sprite2" type="Sprite" parent="Eshirwell"]
scale = Vector2( 0.5, 0.5 )
texture = ExtResource( 11 )

[node name="Ertonson" type="Node2D" parent="."]
position = Vector2( 110.041, 383.124 )
script = ExtResource( 13 )
s_path = NodePath("../ActualPaths/Ertonson_REEO")
w_path = NodePath("../ActualPaths/Eshirwell_Ertonson")

[node name="Sprite3" type="Sprite" parent="Ertonson"]
scale = Vector2( 0.5, 0.5 )
texture = ExtResource( 11 )

[node name="Gleesport" type="Node2D" parent="."]
script = ExtResource( 13 )

[node name="Sprite4" type="Sprite" parent="Gleesport"]
position = Vector2( 1142.48, 386.91 )
scale = Vector2( 0.5, 0.5 )
texture = ExtResource( 11 )

[node name="Isonvale" type="Node2D" parent="."]
position = Vector2( 1641.43, 1180.62 )
script = ExtResource( 13 )

[node name="Sprite5" type="Sprite" parent="Isonvale"]
scale = Vector2( 0.5, 0.5 )
texture = ExtResource( 11 )

[node name="Vlanta" type="Node2D" parent="."]
position = Vector2( 1045.05, 2159.04 )
script = ExtResource( 13 )

[node name="Sprite6" type="Sprite" parent="Vlanta"]
scale = Vector2( 0.5, 0.5 )
texture = ExtResource( 11 )

[node name="Truiport" type="Node2D" parent="."]
position = Vector2( -14.9832, 2274.43 )
script = ExtResource( 13 )

[node name="Sprite7" type="Sprite" parent="Truiport"]
scale = Vector2( 0.5, 0.5 )
texture = ExtResource( 11 )

[node name="Quastead" type="Node2D" parent="."]
position = Vector2( -1057.13, 1820.72 )
script = ExtResource( 13 )
w_path = NodePath("../ActualPaths/Raidon_Quastead")
e_path = NodePath("../ActualPaths/Quastead_QOT")

[node name="Sprite8" type="Sprite" parent="Quastead"]
scale = Vector2( 0.5, 0.5 )
texture = ExtResource( 11 )

[node name="Ozrita" type="Node2D" parent="."]
position = Vector2( -330.382, 1311.3 )
script = ExtResource( 13 )
s_path = NodePath("../ActualPaths/Ozrita_QOT")
w_path = NodePath("../ActualPaths/REEO_Ozrita")

[node name="Sprite9" type="Sprite" parent="Ozrita"]
scale = Vector2( 0.5, 0.5 )
texture = ExtResource( 11 )

[node name="Trawood" type="Node2D" parent="."]
position = Vector2( 652.138, 1267.45 )
script = ExtResource( 13 )

[node name="Sprite10" type="Sprite" parent="Trawood"]
scale = Vector2( 0.5, 0.5 )
texture = ExtResource( 11 )

[node name="CanvasLayer" type="CanvasLayer" parent="."]

[node name="Ressources" type="HBoxContainer" parent="CanvasLayer"]
margin_right = 1025.0
margin_bottom = 50.0
alignment = 1
__meta__ = {
"_edit_use_anchors_": false
}

[node name="GoldIcon" type="TextureRect" parent="CanvasLayer/Ressources"]
margin_left = 252.0
margin_right = 302.0
margin_bottom = 50.0
rect_min_size = Vector2( 50, 50 )
texture = ExtResource( 4 )
expand = true

[node name="Gold" type="Label" parent="CanvasLayer/Ressources"]
margin_left = 306.0
margin_top = 14.0
margin_right = 353.0
margin_bottom = 35.0
custom_fonts/font = ExtResource( 3 )
text = "2000"

[node name="NahrungIcon" type="TextureRect" parent="CanvasLayer/Ressources"]
margin_left = 357.0
margin_right = 407.0
margin_bottom = 50.0
rect_min_size = Vector2( 50, 50 )
texture = ExtResource( 5 )
expand = true

[node name="Nahrung" type="Label" parent="CanvasLayer/Ressources"]
margin_left = 411.0
margin_top = 14.0
margin_right = 458.0
margin_bottom = 35.0
custom_fonts/font = ExtResource( 3 )
text = "2000"

[node name="IronIcon" type="TextureRect" parent="CanvasLayer/Ressources"]
margin_left = 462.0
margin_right = 512.0
margin_bottom = 50.0
rect_min_size = Vector2( 50, 50 )
texture = ExtResource( 6 )
expand = true

[node name="Iron" type="Label" parent="CanvasLayer/Ressources"]
margin_left = 516.0
margin_top = 14.0
margin_right = 563.0
margin_bottom = 35.0
custom_fonts/font = ExtResource( 3 )
text = "2000"

[node name="StoneIcon" type="TextureRect" parent="CanvasLayer/Ressources"]
margin_left = 567.0
margin_right = 617.0
margin_bottom = 50.0
rect_min_size = Vector2( 50, 50 )
texture = ExtResource( 7 )
expand = true

[node name="Stone" type="Label" parent="CanvasLayer/Ressources"]
margin_left = 621.0
margin_top = 14.0
margin_right = 668.0
margin_bottom = 35.0
custom_fonts/font = ExtResource( 3 )
text = "2000"

[node name="EinwohnerIcon" type="TextureRect" parent="CanvasLayer/Ressources"]
margin_left = 672.0
margin_right = 722.0
margin_bottom = 50.0
rect_min_size = Vector2( 50, 50 )
texture = ExtResource( 8 )
expand = true

[node name="Einwohner" type="Label" parent="CanvasLayer/Ressources"]
margin_left = 726.0
margin_top = 14.0
margin_right = 773.0
margin_bottom = 35.0
custom_fonts/font = ExtResource( 3 )
text = "2000"

[node name="Ertonson2" parent="." instance=ExtResource( 1 )]
position = Vector2( -174.517, -5.63684 )

[node name="Name" type="Label" parent="Ertonson2"]
margin_left = 161.817
margin_top = 11.9865
margin_right = 201.817
margin_bottom = 25.9865
custom_fonts/font = ExtResource( 10 )
text = "Ertonson"
__meta__ = {
"_edit_use_anchors_": false
}

[node name="Isonvale2" parent="." instance=ExtResource( 1 )]
position = Vector2( 1468.34, 701.208 )

[node name="Label" type="Label" parent="Isonvale2"]
margin_left = 186.466
margin_top = 21.1893
margin_right = 403.466
margin_bottom = 78.1893
custom_fonts/font = ExtResource( 10 )
text = "Isonvale"
__meta__ = {
"_edit_use_anchors_": false
}

[node name="Truiport2" parent="." instance=ExtResource( 1 )]
position = Vector2( -299.662, 1762.01 )

[node name="Label" type="Label" parent="Truiport2"]
margin_left = 155.824
margin_top = 20.9763
margin_right = 374.824
margin_bottom = 137.976
custom_fonts/font = ExtResource( 10 )
text = "Truiport
"
__meta__ = {
"_edit_use_anchors_": false
}

[node name="Qastead" parent="." instance=ExtResource( 1 )]
position = Vector2( -1330.5, 1372.45 )

[node name="Label" type="Label" parent="Qastead"]
margin_left = 203.878
margin_top = -14.0847
margin_right = 464.878
margin_bottom = 42.9153
custom_fonts/font = ExtResource( 10 )
text = "Quastead"
__meta__ = {
"_edit_use_anchors_": false
}

[node name="Raidon2" parent="." instance=ExtResource( 1 )]
position = Vector2( -1785.98, 683.228 )

[node name="Label" type="Label" parent="Raidon2"]
margin_left = 225.12
margin_top = -11.1989
margin_right = 409.12
margin_bottom = 45.8011
custom_fonts/font = ExtResource( 10 )
text = "Raidon"
__meta__ = {
"_edit_use_anchors_": false
}

[node name="Eshirwell2" parent="." instance=ExtResource( 1 )]
position = Vector2( -1156.69, -77.912 )

[node name="Label" type="Label" parent="Eshirwell2"]
margin_left = 219.061
margin_top = -3.17479
margin_right = 338.061
margin_bottom = 25.8252
custom_fonts/font = ExtResource( 10 )
text = "Eshirwell"
__meta__ = {
"_edit_use_anchors_": false
}

[node name="Trawood2" parent="." instance=ExtResource( 1 )]
position = Vector2( 371.58, 845.045 )

[node name="Label" type="Label" parent="Trawood2"]
margin_left = 212.712
margin_top = -3.1748
margin_right = 328.712
margin_bottom = 25.8252
custom_fonts/font = ExtResource( 10 )
text = "Trawood"
__meta__ = {
"_edit_use_anchors_": false
}

[node name="Vlanta2" parent="." instance=ExtResource( 1 )]
position = Vector2( 759.853, 1663.87 )

[node name="Label" type="Label" parent="Vlanta2"]
margin_left = 263.509
margin_top = -12.6992
margin_right = 350.509
margin_bottom = 16.3008
custom_fonts/font = ExtResource( 10 )
text = "Vlanta"
__meta__ = {
"_edit_use_anchors_": false
}

[node name="Ozrita2" parent="." instance=ExtResource( 1 )]
position = Vector2( -591.557, 801.809 )

[node name="Label" type="Label" parent="Ozrita2"]
margin_left = 231.76
margin_top = -6.34961
margin_right = 315.76
margin_bottom = 22.6504
custom_fonts/font = ExtResource( 10 )
text = "Ozrita"
__meta__ = {
"_edit_use_anchors_": false
}

[node name="Gleesport2" parent="." instance=ExtResource( 1 )]
position = Vector2( 860.608, 3.5636 )

[node name="Label" type="Label" parent="Gleesport2"]
margin_left = 231.76
margin_top = -15.874
margin_right = 361.76
margin_bottom = 13.126
custom_fonts/font = ExtResource( 10 )
text = "Gleesport"
__meta__ = {
"_edit_use_anchors_": false
}

[node name="Labels" type="Node2D" parent="."]

[node name="Label" type="Label" parent="Labels"]
margin_left = -926.243
margin_top = 795.399
margin_right = -851.243
margin_bottom = 824.399
custom_fonts/font = ExtResource( 10 )
text = "REEO"
__meta__ = {
"_edit_use_anchors_": false
}

[node name="Label3" type="Label" parent="Labels"]
margin_left = -659.275
margin_top = 1994.08
margin_right = -584.275
margin_bottom = 2023.08
custom_fonts/font = ExtResource( 10 )
text = "QOT"
__meta__ = {
"_edit_use_anchors_": false
}

[node name="Label2" type="Label" parent="Labels"]
margin_left = 1174.17
margin_top = 1098.12
margin_right = 1249.17
margin_bottom = 1127.12
custom_fonts/font = ExtResource( 10 )
text = "IDK"
__meta__ = {
"_edit_use_anchors_": false
}

[node name="Player" parent="." instance=ExtResource( 12 )]

[node name="Camera2D" type="Camera2D" parent="."]
current = true
script = ExtResource( 14 )
