[gd_scene load_steps=4 format=2]

[ext_resource path="res://Scripts/Skills/stone_skin.gd" type="Script" id=1]
[ext_resource path="res://Assets/Players/Main_Character/Utitility/sandparticle.png" type="Texture" id=2]

[sub_resource type="ParticlesMaterial" id=1]
emission_shape = 1
emission_sphere_radius = 8.0
flag_disable_z = true
gravity = Vector3( 0, -98, 0 )
orbit_velocity = 0.0
orbit_velocity_random = 0.0

[node name="stone_skin" type="Node2D"]
script = ExtResource( 1 )

[node name="Particles2D" type="Particles2D" parent="."]
position = Vector2( 0, 20 )
emitting = false
amount = 10
one_shot = true
process_material = SubResource( 1 )
texture = ExtResource( 2 )
