[gd_scene load_steps=5 format=2]

[ext_resource path="res://Scripts/World/TransitionCanvas.gd" type="Script" id=1]
[ext_resource path="res://Shaders/TransitionEffekt.tres" type="Material" id=2]
[ext_resource path="res://Sounds/sfx_sound_mechanicalnoise_transition_end.wav" type="AudioStream" id=3]
[ext_resource path="res://Sounds/sfx_sound_mechanicalnoise_transition_begin.wav" type="AudioStream" id=4]

[node name="CanvasLayer" type="CanvasLayer"]
script = ExtResource( 1 )

[node name="ColorRect" type="ColorRect" parent="."]
material = ExtResource( 2 )
anchor_right = 1.0
anchor_bottom = 1.0
rect_min_size = Vector2( 40, 40 )
mouse_filter = 2
__meta__ = {
"_edit_use_anchors_": false
}

[node name="Forward" type="AudioStreamPlayer" parent="."]
stream = ExtResource( 3 )

[node name="Backwards" type="AudioStreamPlayer" parent="."]
stream = ExtResource( 4 )
volume_db = -7.0
[connection signal="finished" from="Forward" to="." method="_on_Forward_finished"]
