[gd_scene load_steps=67 format=2]

[ext_resource path="res://Scripts/Enemies/verbundetenportal.gd" type="Script" id=1]
[ext_resource path="res://Assets/World/townportal/convert.png" type="Texture" id=2]

[sub_resource type="AtlasTexture" id=1]
flags = 4
atlas = ExtResource( 2 )
region = Rect2( 0, 0, 100, 100 )

[sub_resource type="AtlasTexture" id=2]
flags = 4
atlas = ExtResource( 2 )
region = Rect2( 100, 0, 100, 100 )

[sub_resource type="AtlasTexture" id=3]
flags = 4
atlas = ExtResource( 2 )
region = Rect2( 200, 0, 100, 100 )

[sub_resource type="AtlasTexture" id=4]
flags = 4
atlas = ExtResource( 2 )
region = Rect2( 300, 0, 100, 100 )

[sub_resource type="AtlasTexture" id=5]
flags = 4
atlas = ExtResource( 2 )
region = Rect2( 400, 0, 100, 100 )

[sub_resource type="AtlasTexture" id=6]
flags = 4
atlas = ExtResource( 2 )
region = Rect2( 500, 0, 100, 100 )

[sub_resource type="AtlasTexture" id=7]
flags = 4
atlas = ExtResource( 2 )
region = Rect2( 600, 0, 100, 100 )

[sub_resource type="AtlasTexture" id=8]
flags = 4
atlas = ExtResource( 2 )
region = Rect2( 700, 0, 100, 100 )

[sub_resource type="AtlasTexture" id=9]
flags = 4
atlas = ExtResource( 2 )
region = Rect2( 0, 100, 100, 100 )

[sub_resource type="AtlasTexture" id=10]
flags = 4
atlas = ExtResource( 2 )
region = Rect2( 100, 100, 100, 100 )

[sub_resource type="AtlasTexture" id=11]
flags = 4
atlas = ExtResource( 2 )
region = Rect2( 200, 100, 100, 100 )

[sub_resource type="AtlasTexture" id=12]
flags = 4
atlas = ExtResource( 2 )
region = Rect2( 300, 100, 100, 100 )

[sub_resource type="AtlasTexture" id=13]
flags = 4
atlas = ExtResource( 2 )
region = Rect2( 400, 100, 100, 100 )

[sub_resource type="AtlasTexture" id=14]
flags = 4
atlas = ExtResource( 2 )
region = Rect2( 500, 100, 100, 100 )

[sub_resource type="AtlasTexture" id=15]
flags = 4
atlas = ExtResource( 2 )
region = Rect2( 600, 100, 100, 100 )

[sub_resource type="AtlasTexture" id=16]
flags = 4
atlas = ExtResource( 2 )
region = Rect2( 700, 100, 100, 100 )

[sub_resource type="AtlasTexture" id=17]
flags = 4
atlas = ExtResource( 2 )
region = Rect2( 0, 200, 100, 100 )

[sub_resource type="AtlasTexture" id=18]
flags = 4
atlas = ExtResource( 2 )
region = Rect2( 100, 200, 100, 100 )

[sub_resource type="AtlasTexture" id=19]
flags = 4
atlas = ExtResource( 2 )
region = Rect2( 200, 200, 100, 100 )

[sub_resource type="AtlasTexture" id=20]
flags = 4
atlas = ExtResource( 2 )
region = Rect2( 300, 200, 100, 100 )

[sub_resource type="AtlasTexture" id=21]
flags = 4
atlas = ExtResource( 2 )
region = Rect2( 400, 200, 100, 100 )

[sub_resource type="AtlasTexture" id=22]
flags = 4
atlas = ExtResource( 2 )
region = Rect2( 500, 200, 100, 100 )

[sub_resource type="AtlasTexture" id=23]
flags = 4
atlas = ExtResource( 2 )
region = Rect2( 600, 200, 100, 100 )

[sub_resource type="AtlasTexture" id=24]
flags = 4
atlas = ExtResource( 2 )
region = Rect2( 700, 200, 100, 100 )

[sub_resource type="AtlasTexture" id=25]
flags = 4
atlas = ExtResource( 2 )
region = Rect2( 0, 300, 100, 100 )

[sub_resource type="AtlasTexture" id=26]
flags = 4
atlas = ExtResource( 2 )
region = Rect2( 100, 300, 100, 100 )

[sub_resource type="AtlasTexture" id=27]
flags = 4
atlas = ExtResource( 2 )
region = Rect2( 200, 300, 100, 100 )

[sub_resource type="AtlasTexture" id=28]
flags = 4
atlas = ExtResource( 2 )
region = Rect2( 300, 300, 100, 100 )

[sub_resource type="AtlasTexture" id=29]
flags = 4
atlas = ExtResource( 2 )
region = Rect2( 400, 300, 100, 100 )

[sub_resource type="AtlasTexture" id=30]
flags = 4
atlas = ExtResource( 2 )
region = Rect2( 500, 300, 100, 100 )

[sub_resource type="AtlasTexture" id=31]
flags = 4
atlas = ExtResource( 2 )
region = Rect2( 600, 300, 100, 100 )

[sub_resource type="AtlasTexture" id=32]
flags = 4
atlas = ExtResource( 2 )
region = Rect2( 700, 300, 100, 100 )

[sub_resource type="AtlasTexture" id=33]
flags = 4
atlas = ExtResource( 2 )
region = Rect2( 0, 400, 100, 100 )

[sub_resource type="AtlasTexture" id=34]
flags = 4
atlas = ExtResource( 2 )
region = Rect2( 100, 400, 100, 100 )

[sub_resource type="AtlasTexture" id=35]
flags = 4
atlas = ExtResource( 2 )
region = Rect2( 200, 400, 100, 100 )

[sub_resource type="AtlasTexture" id=36]
flags = 4
atlas = ExtResource( 2 )
region = Rect2( 300, 400, 100, 100 )

[sub_resource type="AtlasTexture" id=37]
flags = 4
atlas = ExtResource( 2 )
region = Rect2( 400, 400, 100, 100 )

[sub_resource type="AtlasTexture" id=38]
flags = 4
atlas = ExtResource( 2 )
region = Rect2( 500, 400, 100, 100 )

[sub_resource type="AtlasTexture" id=39]
flags = 4
atlas = ExtResource( 2 )
region = Rect2( 600, 400, 100, 100 )

[sub_resource type="AtlasTexture" id=40]
flags = 4
atlas = ExtResource( 2 )
region = Rect2( 700, 400, 100, 100 )

[sub_resource type="AtlasTexture" id=41]
flags = 4
atlas = ExtResource( 2 )
region = Rect2( 0, 500, 100, 100 )

[sub_resource type="AtlasTexture" id=42]
flags = 4
atlas = ExtResource( 2 )
region = Rect2( 100, 500, 100, 100 )

[sub_resource type="AtlasTexture" id=43]
flags = 4
atlas = ExtResource( 2 )
region = Rect2( 200, 500, 100, 100 )

[sub_resource type="AtlasTexture" id=44]
flags = 4
atlas = ExtResource( 2 )
region = Rect2( 300, 500, 100, 100 )

[sub_resource type="AtlasTexture" id=45]
flags = 4
atlas = ExtResource( 2 )
region = Rect2( 400, 500, 100, 100 )

[sub_resource type="AtlasTexture" id=46]
flags = 4
atlas = ExtResource( 2 )
region = Rect2( 500, 500, 100, 100 )

[sub_resource type="AtlasTexture" id=47]
flags = 4
atlas = ExtResource( 2 )
region = Rect2( 600, 500, 100, 100 )

[sub_resource type="AtlasTexture" id=48]
flags = 4
atlas = ExtResource( 2 )
region = Rect2( 700, 500, 100, 100 )

[sub_resource type="AtlasTexture" id=49]
flags = 4
atlas = ExtResource( 2 )
region = Rect2( 0, 600, 100, 100 )

[sub_resource type="AtlasTexture" id=50]
flags = 4
atlas = ExtResource( 2 )
region = Rect2( 100, 600, 100, 100 )

[sub_resource type="AtlasTexture" id=51]
flags = 4
atlas = ExtResource( 2 )
region = Rect2( 200, 600, 100, 100 )

[sub_resource type="AtlasTexture" id=52]
flags = 4
atlas = ExtResource( 2 )
region = Rect2( 300, 600, 100, 100 )

[sub_resource type="AtlasTexture" id=53]
flags = 4
atlas = ExtResource( 2 )
region = Rect2( 400, 600, 100, 100 )

[sub_resource type="AtlasTexture" id=54]
flags = 4
atlas = ExtResource( 2 )
region = Rect2( 500, 600, 100, 100 )

[sub_resource type="AtlasTexture" id=55]
flags = 4
atlas = ExtResource( 2 )
region = Rect2( 600, 600, 100, 100 )

[sub_resource type="AtlasTexture" id=56]
flags = 4
atlas = ExtResource( 2 )
region = Rect2( 700, 600, 100, 100 )

[sub_resource type="AtlasTexture" id=57]
flags = 4
atlas = ExtResource( 2 )
region = Rect2( 0, 700, 100, 100 )

[sub_resource type="AtlasTexture" id=58]
flags = 4
atlas = ExtResource( 2 )
region = Rect2( 100, 700, 100, 100 )

[sub_resource type="AtlasTexture" id=59]
flags = 4
atlas = ExtResource( 2 )
region = Rect2( 200, 700, 100, 100 )

[sub_resource type="AtlasTexture" id=60]
flags = 4
atlas = ExtResource( 2 )
region = Rect2( 300, 700, 100, 100 )

[sub_resource type="AtlasTexture" id=61]
flags = 4
atlas = ExtResource( 2 )
region = Rect2( 400, 700, 100, 100 )

[sub_resource type="AtlasTexture" id=62]
flags = 4
atlas = ExtResource( 2 )
region = Rect2( 500, 700, 100, 100 )

[sub_resource type="AtlasTexture" id=63]
flags = 4
atlas = ExtResource( 2 )
region = Rect2( 600, 700, 100, 100 )

[sub_resource type="SpriteFrames" id=64]
animations = [ {
"frames": [ SubResource( 1 ), SubResource( 2 ), SubResource( 3 ), SubResource( 4 ), SubResource( 5 ), SubResource( 6 ), SubResource( 7 ), SubResource( 8 ), SubResource( 9 ), SubResource( 10 ), SubResource( 11 ), SubResource( 12 ), SubResource( 13 ), SubResource( 14 ), SubResource( 15 ), SubResource( 16 ), SubResource( 17 ), SubResource( 18 ), SubResource( 19 ), SubResource( 20 ), SubResource( 21 ), SubResource( 22 ), SubResource( 23 ), SubResource( 24 ), SubResource( 25 ), SubResource( 26 ), SubResource( 27 ), SubResource( 28 ), SubResource( 29 ), SubResource( 30 ), SubResource( 31 ), SubResource( 32 ), SubResource( 33 ), SubResource( 34 ), SubResource( 35 ), SubResource( 36 ), SubResource( 37 ), SubResource( 38 ), SubResource( 39 ), SubResource( 40 ), SubResource( 41 ), SubResource( 42 ), SubResource( 43 ), SubResource( 44 ), SubResource( 45 ), SubResource( 46 ), SubResource( 47 ), SubResource( 48 ), SubResource( 49 ), SubResource( 50 ), SubResource( 51 ), SubResource( 52 ), SubResource( 53 ), SubResource( 54 ), SubResource( 55 ), SubResource( 56 ), SubResource( 57 ), SubResource( 58 ), SubResource( 59 ), SubResource( 60 ), SubResource( 61 ), SubResource( 62 ), SubResource( 63 ) ],
"loop": true,
"name": "default",
"speed": 20.0
} ]

[node name="verbundetenportal" type="Node2D"]
script = ExtResource( 1 )

[node name="AnimatedSprite" type="AnimatedSprite" parent="."]
frames = SubResource( 64 )
frame = 5
playing = true
