[gd_resource type="DynamicFont" load_steps=2 format=2]

[ext_resource path="res://Fonts/Sources/Comfortaa-Bold.ttf" type="DynamicFontData" id=1]

[resource]
size = 18
outline_color = Color( 0.701961, 0.701961, 0.701961, 1 )
use_filter = true
extra_spacing_char = 2
font_data = ExtResource( 1 )
