[gd_resource type="ShaderMaterial" load_steps=2 format=2]

[sub_resource type="Shader" id=1]
code = "shader_type canvas_item;
uniform float start_color;
uniform float speed;

void fragment(){
	vec4 col = texture(TEXTURE,UV);
	float uv_length = length(UV);
	
	
	
	if (col.a > 0.1){
		//col.a = 0f + speed * uv_length;
		if (col.a > 1f){
			col.a = 1f;
		}
		col.r -= start_color + speed * uv_length;
		col.g -= start_color + speed * uv_length;
		col.b -= start_color + speed * uv_length;
	}

	
	COLOR = col;
}"

[resource]
shader = SubResource( 1 )
shader_param/start_color = 1.002
shader_param/speed = -0.278
